…
```r
library(tidyverse)
library(isotracer)
```


The data is available in `eelgrass`:


```r
eelgrass
```

```
## # A tibble: 83 × 7
##    light_treatment addition_site compartment time_min n_32P_per_mg mass_mg      n_32P
##    <chr>           <chr>         <chr>          <int>        <dbl>   <dbl>      <dbl>
##  1 dark            upper         leaves_stem        1     8163097.      46     3.76e8
##  2 dark            upper         leaves_stem      120    17135877.      46     7.88e8
##  3 dark            upper         leaves_stem      600    28156120.      46     1.30e9
##  4 dark            upper         leaves_stem     1500   157367757.      46     7.24e9
##  5 dark            upper         leaves_stem     3000    97868573.      46     4.50e9
##  6 dark            upper         lower_water        1        3474.   80000     2.78e8
##  7 dark            upper         lower_water      120        9332.   80000     7.47e8
##  8 dark            upper         lower_water      600       59509.   80000     4.76e9
##  9 dark            upper         lower_water     1500       18571.   80000     1.49e9
## 10 dark            upper         lower_water     3000        4448.   80000     3.56e8
## # ℹ 73 more rows
```
…
```r
eelgrass <- eelgrass %>%
  select(compartment, time_day, n_1e6_32P, prop, light_treatment, addition_site)
```

This is our table ready for the model specification:


```r
eelgrass
```

```
## # A tibble: 83 × 6
##    compartment time_day n_1e6_32P  prop light_treatment addition_site
##    <chr>          <dbl>     <dbl> <dbl> <chr>           <chr>        
##  1 leaves_stem 0.000694      376.     1 dark            upper        
##  2 leaves_stem 0.0833        788.     1 dark            upper        
##  3 leaves_stem 0.417        1295.     1 dark            upper        
##  4 leaves_stem 1.04         7239.     1 dark            upper        
##  5 leaves_stem 2.08         4502.     1 dark            upper        
##  6 lower_water 0.000694      278.     1 dark            upper        
##  7 lower_water 0.0833        747.     1 dark            upper        
##  8 lower_water 0.417        4761.     1 dark            upper        
##  9 lower_water 1.04         1486.     1 dark            upper        
## 10 lower_water 2.08          356.     1 dark            upper        
## # ℹ 73 more rows
```
…
Now we can estimate the flows given those initial conditions and the parameter posteriors:


```r
flows <- tidy_flows(m2, fit, n = 200)
flows
```


```
## # A tibble: 800 × 5
##    group     mcmc.chain mcmc.iteration mcmc.parameters flows             
##  * <list>         <int>          <int> <list>          <list>            
##  1 <chr [2]>          2             93 <dbl [14]>      <gropd_df [8 × 3]>
##  2 <chr [2]>          4            167 <dbl [14]>      <gropd_df [8 × 3]>
##  3 <chr [2]>          4            162 <dbl [14]>      <gropd_df [8 × 3]>
##  4 <chr [2]>          2            336 <dbl [14]>      <gropd_df [8 × 3]>
##  5 <chr [2]>          4            252 <dbl [14]>      <gropd_df [8 × 3]>
##  6 <chr [2]>          2            174 <dbl [14]>      <gropd_df [8 × 3]>
##  7 <chr [2]>          3            420 <dbl [14]>      <gropd_df [8 × 3]>
##  8 <chr [2]>          3            763 <dbl [14]>      <gropd_df [8 × 3]>
##  9 <chr [2]>          2            726 <dbl [14]>      <gropd_df [8 × 3]>
## 10 <chr [2]>          1            172 <dbl [14]>      <gropd_df [8 × 3]>
## # ℹ 790 more rows
```
…
