…
The data shipped with `isotracer` is:

- `li2017`: a table providing relative abundance and labelled fraction data for individual proteins, for different days and different leaf types
- `li2017_prots`: a table mapping the protein identifiers from `li2017` to their description
- `li2017_counts`: a summary table giving the number of relative abundance data points and of labelled fraction data points for each protein.

This is how the relative abundance and labelled fraction data looks like:


```r
li2017
```

```
## # A tibble: 59,048 × 6
##    prot_id                 sample rel_abundance labeled_fraction time_day leaf_id
##    <chr>                   <chr>          <dbl>            <dbl>    <dbl> <chr>  
##  1 AT1G01050.1             T0L3R3         1.29                NA        0 leaf_3 
##  2 AT1G01050.1             T0L5R3         1.29                NA        0 leaf_5 
##  3 AT1G01080.1,AT1G01080.2 T0L3R1         0.972               NA        0 leaf_3 
##  4 AT1G01080.1,AT1G01080.2 T0L3R2         1.10                NA        0 leaf_3 
##  5 AT1G01080.1,AT1G01080.2 T0L3R3         0.854               NA        0 leaf_3 
##  6 AT1G01080.1,AT1G01080.2 T0L5R1         1.37                NA        0 leaf_5 
##  7 AT1G01080.1,AT1G01080.2 T0L5R2         1.07                NA        0 leaf_5 
##  8 AT1G01080.1,AT1G01080.2 T0L5R3         0.747               NA        0 leaf_5 
##  9 AT1G01080.1,AT1G01080.2 T0L7R1         0.332               NA        0 leaf_7 
## 10 AT1G01080.1,AT1G01080.2 T0L7R2         1.09                NA        0 leaf_7 
## # ℹ 59,038 more rows
```
…
```r
prots <- c("ATCG00490.1" = "RBCL", "AT5G54770.1" = "THI1", "AT2G28000.1" = "CPN60A",
           "ATCG00020.1" = "PSBA", "AT3G12780.1" = "PGK1")
data <- li2017 %>%
  filter(prot_id %in% names(prots)) %>%
  mutate(prot = prots[prot_id]) %>%
  rename(compartment = prot) %>%
  select(compartment, leaf_id, time_day, rel_abundance, labeled_fraction)
data
```

```
## # A tibble: 284 × 5
##    compartment leaf_id time_day rel_abundance labeled_fraction
##    <chr>       <chr>      <dbl>         <dbl>            <dbl>
##  1 CPN60A      leaf_3         0         0.837               NA
##  2 CPN60A      leaf_3         0         0.818               NA
##  3 CPN60A      leaf_3         0         0.953               NA
##  4 CPN60A      leaf_5         0         1.40                NA
##  5 CPN60A      leaf_5         0         1.31                NA
##  6 CPN60A      leaf_5         0         1.73                NA
##  7 CPN60A      leaf_7         0         1.44                NA
##  8 CPN60A      leaf_7         0         2.03                NA
##  9 CPN60A      leaf_7         0         2.06                NA
## 10 CPN60A      leaf_3         1         0.774               NA
## # ℹ 274 more rows
```
…
```r
m <- m %>% add_covariates(upsilon + lambda ~ leaf_id)
```

This results in quite a few parameters to be estimated by the model:


```r
params(m)
```

```
## # A tibble: 35 × 2
##    in_model             value
##    <chr>                <dbl>
##  1 eta                     NA
##  2 lambda_CPN60A|leaf_3    NA
##  3 lambda_CPN60A|leaf_5    NA
##  4 lambda_CPN60A|leaf_7    NA
##  5 lambda_medium|leaf_3    NA
##  6 lambda_medium|leaf_5    NA
##  7 lambda_medium|leaf_7    NA
##  8 lambda_PGK1|leaf_3      NA
##  9 lambda_PGK1|leaf_5      NA
## 10 lambda_PGK1|leaf_7      NA
## # ℹ 25 more rows
```
…
